PORT_ORIGIN,PORT_DESTINATION,STAGE_DISTANCE,VEHICLES_NUMBER,ID_CARGO_TYPE,TAGS,MATERIAL_NAME,CARGO_TEU,CARGO_WEIGHT,GROSS_TONNAGE,TOTAL_LOAD,ID_SHIP_LOAD_TYPE,ID_SHIP_TYPE,PORT_OPERATIONS,SHIP_FUEL_TYPE
TWKHH,AOMSZ,-,1,teu,client:JP|code:KL-4513,,2,24,,48,Container,,,
AOMSZ,CNXMN,15597790,1,teu,client:JP|code:KL-4382,,49,24,,1176,Container,,,
AOMSZ,ITSPL,9043030,1,teu,client:JP|code:KL-4382,,12,24,,288,Container,,,
AOMSZ,CNXMN,15597790,1,teu,client:JP|code:KL-4309,,22,24,,528,Container,,,
IPLEI,AOMSZ,7788250,1,conventional,client:JP|code:KL-4299,,1,24,,24,Others,,,
BR VIX,DEBRV,9569370,1,teu,client:|code:KL-4274,,1.0,24.0,,24.0,Container,,,
BR VIX,GBLON,9118430,1,teu,client:|code:KL-4239,,2.0,24.0,,48.0,Container,,,
nan,MDC,0,1,conventional,client:PE|code:KL-4424.3,,nan,nan,,156.0,Inland truck,,,
IPLEI,AOMSZ,7788250,1,conventional,client:JM|code:KL-4563,,3.0,24.0,,72.0,Others,,,
ZADUR,FRLEH,12407290,1,teu,client:JM|code:KL-4562,,2.0,24.0,,48.0,Container,,,
COCTG,MZMPM,13361390,1,conventional,client:JM|code:KL-4554,,nan,nan,,46.02,RORO,,,
IPLEI,MZMPM,11652000,1,conventional,client:JM|code:KL-4553,,nan,nan,,138.45,RORO,,,
ZADUR,FRLEH,12407290,1,teu,client:JM|code:KL-4536,,1.0,24.0,,24.0,Container,,,
ZADUR,FRLEH,12407290,1,teu,client:JM|code:KL-4530,,1.0,24.0,,24.0,Container,,,
AOMSZ,INMUN,5859920,1,teu,client:JM|code:KL-4524,,2.0,24.0,,48.0,Container,,,
AOMSZ,ITSPL,9043030,1,teu,client:JM|code:KL-4523,,1.0,24.0,,24.0,Container,,,
AOMSZ,TWKEL,15599440,1,teu,client:JM|code:KL-4521,,6.0,24.0,,144.0,Container,,,
AOMSZ,BEANR,9406320,1,teu,client:JM|code:KL-4520,,1.0,24.0,,24.0,Container,,,
ZADUR,FRLEH,12407290,1,teu,client:JM|code:KL-4518,,1.0,24.0,,24.0,Container,,,
AOMSZ,CNXMN,15597790,1,teu,client:JM|code:KL-4516,,1.0,24.0,,24.0,Container,,,
MZ BEW,nan,0,1,conventional,client:JM|code:KL-4508.6,,5.0,24.0,,120.0,Inland truck,,,
MZ BEW,nan,0,1,conventional,client:JM|code:KL-4508.5,,6.0,24.0,,144.0,Inland truck,,,
MZ BEW,nan,0,1,conventional,client:JM|code:KL-4508.4,,20.0,24.0,,480.0,Inland truck,,,
MZ BEW,nan,0,1,conventional,client:JM|code:KL-4508.3,,26.0,24.0,,624.0,Inland truck,,,
MZ BEW,nan,0,1,conventional,client:JM|code:KL-4508.2,,40.0,24.0,,960.0,Inland truck,,,
MZ BEW,nan,0,1,conventional,client:JM|code:KL-4508.1,,5.0,24.0,,120.0,Inland truck,,,
MZ BEW,nan,0,1,conventional,client:JM|code:KL-4508,,5.0,24.0,,120.0,Inland truck,,,
IPLEI,AOMSZ,7788250,1,conventional,client:JM|code:KL-4504,,1.0,24.0,,24.0,Others,,,
Richards Bay,nan,0,1,conventional,client:JM|code:KL-4495,,5.0,24.0,,120.0,Inland truck,,,
ZADUR,FRLEH,12407290,1,teu,client:JM|code:KL-4492,,1.0,24.0,,24.0,Container,,,
MZ BEW,ESVGO,11759940,1,teu,client:JM|code:KL-4491,,6.0,24.0,,144.0,Container,,,
AOMSZ,TWKEL,15599440,1,teu,client:JM|code:KL-4483,,5.0,24.0,,120.0,Container,,,
AOMSZ,CNXMN,15597790,1,teu,client:JM|code:KL-4482,,3.0,24.0,,72.0,Container,,,
AOMSZ,INMUN,5859920,1,teu,client:JM|code:KL-4481,,4.0,24.0,,96.0,Container,,,
AOMSZ,TWKHH,15249570,1,teu,client:JM|code:KL-4480,,4.0,24.0,,96.0,Container,,,
AOMSZ,AEJEA,11001790,1,teu,client:JM|code:KL-4479,,7.0,24.0,,168.0,Container,,,
AOMSZ,TWKHH,15249570,1,teu,client:JM|code:KL-4478,,13.0,24.0,,312.0,Container,,,
AOMSZ,TWKHH,15249570,1,teu,client:JM|code:KL-4477,,13.0,24.0,,312.0,Container,,,
AOMSZ,TWKHH,15249570,1,teu,client:JM|code:KL-4476,,3.0,24.0,,72.0,Container,,,
AOMSZ,TWKHH,15249570,1,teu,client:JM|code:KL-4475,,4.0,24.0,,96.0,Container,,,
AOMSZ,FRLEH,9058920,1,teu,client:JM|code:KL-4474,,3.0,24.0,,72.0,Container,,,
AOMSZ,TWKHH,15249570,1,teu,client:JM|code:KL-4473,,5.0,24.0,,120.0,Container,,,
ZADUR,FRLEH,12407290,1,teu,client:JM|code:KL-4467,,1.0,24.0,,24.0,Container,,,
ZADUR,FRLEH,12407290,1,teu,client:JM|code:KL-4466,,1.0,24.0,,24.0,Container,,,
CNWUZ,ZWHRE,11520450,1,teu,client:JM|code:KL-4451,,1.0,24.0,,24.0,Container,,,
ZADUR,FRLEH,12407290,1,teu,client:JM|code:KL-4450,,1.0,24.0,,24.0,Container,,,
AOMSZ,TWKHH,15249570,1,teu,client:JM|code:KL-4449,,2.0,24.0,,48.0,Container,,,
AOMSZ,TWKEL,15599440,1,teu,client:JM|code:KL-4448,,3.0,24.0,,72.0,Container,,,
AOMSZ,TWKEL,15599440,1,teu,client:JM|code:KL-4443,,1.0,24.0,,24.0,Container,,,
ZAHDL,nan,0,1,conventional,client:JM|code:KL-4442,,6.0,24.0,,144.0,Inland truck,,,
MZ BEW,PLGDY,14709420,1,teu,client:JM|code:KL-4432,,5.0,24.0,,120.0,Container,,,
AOMSZ,ESVGO,7896330,1,conventional,client:JM|code:KL-4421,,1.0,24.0,,24.0,Others,,,
AOMSZ,TWKHH,15249570,1,teu,client:JM|code:KL-4420,,2.0,24.0,,48.0,Container,,,
AOMSZ,CNXMN,15597790,1,teu,client:JM|code:KL-4419,,10.0,24.0,,240.0,Container,,,
AOMSZ,CNXMN,15597790,1,teu,client:JM|code:KL-4418,,23.0,24.0,,552.0,Container,,,
AOMSZ,TWKEL,15599440,1,teu,client:JM|code:KL-4417,,3.0,24.0,,72.0,Container,,,
MZ BEW,ITSPL,9832130,1,teu,client:JM|code:KL-4411,,1.0,24.0,,24.0,Container,,,
MZ BEW,ESVGO,11759940,1,teu,client:JM|code:KL-4410,,1.0,24.0,,24.0,Container,,,
MZ BEW,Thailand,0,1,teu,client:JM|code:KL-4409,,3.0,24.0,,72.0,Container,,,
AOLAD,CNXMN,16299880,1,teu,client:JM|code:KL-4407,,1.0,24.0,,24.0,Container,,,
AOMSZ,CNXMN,15597790,1,teu,client:JM|code:KL-4402,,1.0,24.0,,24.0,Container,,,
AOMSZ,CNXMN,15597790,1,teu,client:JM|code:KL-4401,,2.0,24.0,,48.0,Container,,,
AOMSZ,VNSGN,13711270,1,teu,client:JM|code:KL-4400,,20.0,24.0,,480.0,Container,,,
MZ BEW,ESVGO,11759940,1,teu,client:JM|code:KL-4398,,5.0,24.0,,120.0,Container,,,
AOMSZ,CNXMN,15597790,1,teu,client:JM|code:KL-4396,,12.0,24.0,,288.0,Container,,,
AOMSZ,CNXMN,15597790,1,teu,client:JM|code:KL-4395,,45.0,24.0,,1080.0,Container,,,
AOMSZ,TWKHH,15249570,1,teu,client:JM|code:KL-4394,,2.0,24.0,,48.0,Container,,,
AOMSZ,TWKHH,15249570,1,teu,client:JM|code:KL-4393,,1.0,24.0,,24.0,Container,,,
ZADUR,FRLEH,12407290,1,teu,client:JM|code:KL-4392,,2.0,24.0,,48.0,Container,,,
MZ BEW,nan,0,1,conventional,client:JM|code:KL-4373,,185.0,24.0,,4440.0,Inland truck,,,
ZADUR,nan,0,1,conventional,client:JM|code:KL-4365,,4.0,24.0,,96.0,Inland truck,,,
AOMSZ,CNXMN,15597790,1,teu,client:JM|code:KL-4359,,60.0,24.0,,1440.0,Container,,,
ZADUR,FRLEH,12407290,1,teu,client:JM|code:KL-4357,,1.0,24.0,,24.0,Container,,,
AOMSZ,PLGDY,10826180,1,teu,client:JM|code:KL-4355,,8.0,24.0,,192.0,Container,,,
AOMSZ,CNXMN,15597790,1,teu,client:JM|code:KL-4349,,9.0,24.0,,216.0,Container,,,
MZ BEW,ESVGO,11759940,1,teu,client:JM|code:KL-4326,,9.0,24.0,,216.0,Container,,,
ZADUR,FRLEH,12407290,1,teu,client:JM|code:KL-4324,,2.0,24.0,,48.0,Container,,,
MZ BEW,nan,0,1,conventional,client:JM|code:KL-4320,,272.0,24.0,,6528.0,Inland truck,,,
AOMSZ,TWKHH,15249570,1,teu,client:JM|code:KL-4304,,18.0,24.0,,432.0,Container,,,
ZADUR,nan,0,1,conventional,client:JM|code:KL-3537.6,,3.0,24.0,,72.0,Inland truck,,,
MZ BEW,ITSPL,9832130,1,teu,client:JM|code:KL-4293,,5.0,24.0,,120.0,Container,,,
AOMSZ,CNXMN,15597790,1,teu,client:JM|code:KL-4291,,1.0,24.0,,24.0,Container,,,
AOMSZ,TWKHH,15249570,1,teu,client:JM|code:KL-4272,,8.0,24.0,,192.0,Container,,,
AOMSZ,TWKHH,15249570,1,teu,client:JM|code:KL-4271,,10.0,24.0,,240.0,Container,,,
AOMSZ,INMUN,5859920,1,teu,client:JM|code:KL-4270,,2.0,24.0,,48.0,Container,,,
AOMSZ,AEJEA,11001790,1,teu,client:JM|code:KL-4269,,5.0,24.0,,120.0,Container,,,
MZ BEW,CNXMN,0,1,teu,client:JM|code:KL-4260,,18.0,24.0,,432.0,Container,,,
MZ BEW,ALDUR,0,1,teu,client:JM|code:KL-4252,,10.0,24.0,,240.0,Container,,,
MZ BEW,CNTAO,0,1,teu,client:JM|code:KL-4241,,6.0,24.0,,144.0,Container,,,
